Id,speed,distance,period,warning,label1,lng,lat,warning_value,label2
1,83,40,0,1,1,108.274097,-6.414626,60,0
3,25,15,0,1,0,-6.182732,108.837492,60,0
4,30,20,0,1,0,-6.182732,108.837492,60,04,35,25,0,1,0,-6.182732,108.837492,60,0
4,40,30,0,1,0,-6.182732,108.837492,60,0
5,45,35,0,1,0,-6.182732,108.837492,60,0
6,50,40,0,1,0,-6.182732,108.837492,60,0
7,55,45,0,1,0,-6.182732,108.837492,60,0
8,60,50,0,1,0,-6.182732,108.837492,60,0
9,65,55,0,1,0,-6.182732,108.837492,60,0
10,70,60,0,1,0,-6.182732,108.837492,60,0
11,35,25,0,1,0,-6.182732,108.837492,60,0
12,60,80,0,1,0,-8435345,108.3524360,60,0
13,31,15,0,1,0,-6.182732,108.837492,60,0
14,32,20,0,1,0,-6.182732,108.837492,60,0
15,33,25,0,1,0,-6.182732,108.837492,60,0
16,34,30,0,1,1,-6.182732,108.837492,60,0
17,35,35,0,1,0,-6.182732,108.837492,60,0
18,36,40,0,1,0,-6.182732,108.837492,60,0
19,37,45,0,1,0,-6.182732,108.837492,60,0
20,38,50,0,1,0,-6.182732,108.837492,60,0
21,39,55,0,1,0,-6.182732,108.837492,60,0
22,40,60,0,1,0,-6.182732,108.837492,60,0
23,61,55,0,1,0,-6.182732,108.837492,60,0
24,62,50,0,1,0,-6.182732,108.837492,60,0
25,63,45,0,1,0,-6.182732,108.837492,60,0
26,64,40,0,1,0,-6.182732,108.837492,60,0
27,65,35,0,1,0,-6.182732,108.837492,60,0
28,66,30,0,1,1,-6.182732,108.837492,60,0
29,67,25,0,1,1,-6.182732,108.837492,60,0
30,68,20,0,1,0,-6.182732,108.837492,60,0
31,69,15,0,1,1,-6.182732,108.837492,60,0
32,70,10,0,1,0,-6.182732,108.837492,60,0
